[{
  "_id": {
    "$oid": "6351dd3ba9484bc96c838ad7"
  },
  "idProducto": "1",
  "nombreProducto": "Gelatinas",
  "unidades": 5,
  "precio": 1000,
  "activo": true
},{
  "_id": {
    "$oid": "6351dd3ba9484bc96c838ad8"
  },
  "idProducto": "2",
  "nombreProducto": "Bombombun",
  "unidades": 10,
  "precio": 500,
  "activo": true
},{
  "_id": {
    "$oid": "6351dd3ba9484bc96c838ad9"
  },
  "idProducto": "3",
  "nombreProducto": "Barrilete",
  "unidades": 17,
  "precio": 650,
  "activo": true
},{
  "_id": {
    "$oid": "6351dd3ba9484bc96c838ada"
  },
  "idProducto": "4",
  "nombreProducto": "Beleños",
  "unidades": 20,
  "precio": 2000,
  "activo": true
},{
  "_id": {
    "$oid": "6351dd3ba9484bc96c838adb"
  },
  "idProducto": "5",
  "nombreProducto": "Supercoco",
  "unidades": 25,
  "precio": 3000,
  "activo": true
}]